<?xml version="1.0" encoding="UTF-8" standalone="no"?>
<svg
   viewBox="0 0 527.18342 527.18342"
   height="562.32898"
   width="562.32898"
   id="svg2"
   version="1.1"
   inkscape:version="1.3.2 (091e20ef0f, 2023-11-25, custom)"
   sodipodi:docname="De_Lijn.svg"
   inkscape:export-filename="HetSaldo.png"
   inkscape:export-xdpi="174.81589"
   inkscape:export-ydpi="174.81589"
   xmlns:inkscape="http://www.inkscape.org/namespaces/inkscape"
   xmlns:sodipodi="http://sodipodi.sourceforge.net/DTD/sodipodi-0.dtd"
   xmlns="http://www.w3.org/2000/svg"
   xmlns:svg="http://www.w3.org/2000/svg"
   xmlns:rdf="http://www.w3.org/1999/02/22-rdf-syntax-ns#"
   xmlns:cc="http://creativecommons.org/ns#"
   xmlns:dc="http://purl.org/dc/elements/1.1/">
  <sodipodi:namedview
     pagecolor="#ffffff"
     bordercolor="#666666"
     borderopacity="1"
     objecttolerance="10"
     gridtolerance="10"
     guidetolerance="10"
     inkscape:pageopacity="0"
     inkscape:pageshadow="2"
     inkscape:window-width="1916"
     inkscape:window-height="1141"
     id="namedview37"
     showgrid="false"
     inkscape:zoom="0.89480296"
     inkscape:cx="588.3977"
     inkscape:cy="541.45999"
     inkscape:window-x="0"
     inkscape:window-y="0"
     inkscape:window-maximized="1"
     inkscape:current-layer="layer1"
     inkscape:showpageshadow="2"
     inkscape:pagecheckerboard="0"
     inkscape:deskcolor="#d1d1d1"
     inkscape:document-units="mm" />
  <defs
     id="defs4318">
    <rect
       x="426.21634"
       y="205.52072"
       width="120.99528"
       height="64.301353"
       id="rect1" />
    <rect
       x="426.21634"
       y="205.52072"
       width="407.82468"
       height="234.01494"
       id="rect1-2" />
  </defs>
  <metadata
     id="metadata4321">
    <rdf:RDF>
      <cc:Work
         rdf:about="">
        <dc:format>image/svg+xml</dc:format>
        <dc:type
           rdf:resource="http://purl.org/dc/dcmitype/StillImage" />
      </cc:Work>
    </rdf:RDF>
  </metadata>
  <g
     transform="translate(-41.863677,-54.960636)"
     id="layer1">
    <rect
       transform="matrix(1,0,-0.16246295,0.98671464,0,0)"
       y="330.44257"
       x="227.6357"
       height="258.59686"
       width="350.87085"
       id="rect4929"
       style="fill:#ffdd00;fill-opacity:1;stroke:#ffdd00;stroke-width:1.05779;stroke-miterlimit:4;stroke-dasharray:none;stroke-opacity:1" />
    <rect
       transform="matrix(1,0,-0.17364818,0.98480775,0,0)"
       y="56.346092"
       x="234.64549"
       height="120.91451"
       width="343.55481"
       id="rect4937"
       style="fill:#ffdd00;fill-opacity:1;stroke:#ffdd00;stroke-width:1.0752;stroke-miterlimit:4;stroke-dasharray:none;stroke-opacity:1" />
    <rect
       transform="matrix(1,0,-0.17364818,0.98480775,0,0)"
       y="192.8266"
       x="235.71576"
       height="21.235424"
       width="104.96621"
       id="rect4981"
       style="fill:#010198;fill-opacity:1;stroke:#010198;stroke-width:1.0752;stroke-miterlimit:4;stroke-dasharray:none;stroke-opacity:1" />
    <rect
       transform="matrix(1,0,-0.17364818,0.98480775,0,0)"
       y="192.8266"
       x="343.6879"
       height="21.235424"
       width="62.738426"
       id="rect4983"
       style="fill:#010198;fill-opacity:1;stroke:#010198;stroke-width:1.0752;stroke-miterlimit:4;stroke-dasharray:none;stroke-opacity:1" />
    <rect
       transform="matrix(1,0,-0.17364818,0.98480775,0,0)"
       y="192.8266"
       x="410.10413"
       height="21.235424"
       width="38.206093"
       id="rect4985"
       style="fill:#010198;fill-opacity:1;stroke:#010198;stroke-width:1.0752;stroke-miterlimit:4;stroke-dasharray:none;stroke-opacity:1" />
    <rect
       transform="matrix(1,0,-0.17710074,0.98419273,0,0)"
       y="192.97031"
       x="453.24146"
       height="21.230856"
       width="22.531042"
       id="rect4989"
       style="fill:#010198;fill-opacity:1;stroke:#010198;stroke-width:1.06512;stroke-miterlimit:4;stroke-dasharray:none;stroke-opacity:1" />
    <rect
       transform="matrix(1,0,-0.17713253,0.98418701,0,0)"
       y="192.97148"
       x="479.83411"
       height="21.230877"
       width="14.486855"
       id="rect4991"
       style="fill:#010198;fill-opacity:1;stroke:#010198;stroke-width:1.06521;stroke-miterlimit:4;stroke-dasharray:none;stroke-opacity:1" />
    <rect
       transform="matrix(1,0,-0.17364818,0.98480775,0,0)"
       y="192.8266"
       x="499.03299"
       height="21.235424"
       width="8.4455576"
       id="rect4993"
       style="fill:#010198;fill-opacity:1;stroke:#010198;stroke-width:1.0752;stroke-miterlimit:4;stroke-dasharray:none;stroke-opacity:1" />
    <rect
       transform="matrix(1,0,-0.17721856,0.98417152,0,0)"
       y="192.97467"
       x="513.79419"
       height="21.230932"
       width="6.0391374"
       id="rect4995"
       style="fill:#010198;fill-opacity:1;stroke:#010198;stroke-width:1.06548;stroke-miterlimit:4;stroke-dasharray:none;stroke-opacity:1" />
    <rect
       transform="matrix(1,0,-0.17960235,0.98373929,0,0)"
       y="192.93896"
       x="525.85266"
       height="21.36405"
       width="4.8357549"
       id="rect4997"
       style="fill:#010198;fill-opacity:1;stroke:#010198;stroke-width:1.05936;stroke-miterlimit:4;stroke-dasharray:none;stroke-opacity:1" />
    <rect
       transform="matrix(1,0,-0.17730416,0.9841561,0,0)"
       y="192.97786"
       x="536.17426"
       height="21.230989"
       width="2.819633"
       id="rect4999"
       style="fill:#010198;fill-opacity:1;stroke:#010198;stroke-width:1.06574;stroke-miterlimit:4;stroke-dasharray:none;stroke-opacity:1" />
    <rect
       transform="matrix(1,0,-0.17364818,0.98480775,0,0)"
       y="192.8266"
       x="545.82788"
       height="21.235424"
       width="2.8151858"
       id="rect5001"
       style="fill:#010198;fill-opacity:1;stroke:#010198;stroke-width:1.0752;stroke-miterlimit:4;stroke-dasharray:none;stroke-opacity:1" />
    <rect
       transform="matrix(1,0,-0.18287798,0.98313562,0,0)"
       y="192.85426"
       x="558.95721"
       height="21.584026"
       width="1.3324956"
       id="rect5003"
       style="fill:#010198;fill-opacity:1;stroke:#010198;stroke-width:1.05264;stroke-miterlimit:4;stroke-dasharray:none;stroke-opacity:1" />
    <rect
       transform="matrix(1,0,-0.17980804,0.98370172,0,0)"
       y="192.91266"
       x="567.91907"
       height="21.398233"
       width="1.3305292"
       id="rect5005"
       style="fill:#010198;fill-opacity:1;stroke:#010198;stroke-width:1.06002;stroke-miterlimit:4;stroke-dasharray:none;stroke-opacity:1" />
    <rect
       transform="matrix(1,0,-0.17859011,0.98392356,0,0)"
       y="192.7251"
       x="579.79944"
       height="21.535765"
       width="0.7980063"
       id="rect5007"
       style="fill:#010198;fill-opacity:1;stroke:#010198;stroke-width:1.06322;stroke-miterlimit:4;stroke-dasharray:none;stroke-opacity:1" />
    <path
       style="font-size:37.3333px;font-family:Impact;-inkscape-font-specification:Impact;white-space:pre;fill:#666666;stroke-width:5.15906"
       d="m 445.39386,213.38219 v 29.513 h -7.67447 v -12.39582 h -2.29687 v 12.39582 h -7.67447 v -29.513 h 7.67447 v 10.55468 h 2.29687 v -10.55468 z m 3.08073,0 h 12.79687 v 5.90625 h -5.1224 v 5.59635 h 4.79427 v 5.61458 h -4.79427 v 6.48957 h 5.63281 v 5.90625 h -13.30728 z m 30.47914,0 v 5.90625 h -4.55728 v 23.60675 h -7.67448 v -23.60675 h -4.53906 v -5.90625 z"
       id="text1"
       transform="matrix(0.93749997,0,0,0.93749997,-258.09926,-16.067179)"
       aria-label="HET" />
    <path
       style="font-size:133.333px;font-family:Impact;-inkscape-font-specification:Impact;white-space:pre;fill:#666666;stroke-width:5.15906"
       d="m 489.7583,265.49636 h -25.45566 v -7.81248 c 0,-3.64583 -0.32552,-5.96787 -0.97656,-6.96613 -0.65104,-0.99826 -1.73611,-1.49739 -3.2552,-1.49739 -1.6493,0 -2.90798,0.67274 -3.77604,2.01822 -0.82465,1.34549 -1.23697,3.38541 -1.23697,6.11978 0,3.51561 0.47743,6.16318 1.43229,7.94269 0.91145,1.77951 3.49391,3.92794 7.74737,6.44529 12.19615,7.24825 19.87843,13.19441 23.04682,17.8385 3.16839,4.64409 4.75259,12.13105 4.75259,22.46088 0,7.50866 -0.88975,13.0425 -2.66926,16.60152 -1.73611,3.55902 -5.12152,6.5538 -10.15623,8.98435 -5.03471,2.38715 -10.89407,3.58072 -17.57808,3.58072 -7.33505,0 -13.60673,-1.38888 -18.81505,-4.16665 -5.16492,-2.77777 -8.55033,-6.31509 -10.15623,-10.61196 -1.6059,-4.29686 -2.40885,-10.39493 -2.40885,-18.29422 v -6.90102 h 25.45567 v 12.82548 c 0,3.94965 0.34722,6.4887 1.04166,7.61717 0.73785,1.12847 2.01823,1.69271 3.84114,1.69271 1.82291,0 3.1684,-0.71615 4.03645,-2.14844 0.91145,-1.43229 1.36718,-3.55902 1.36718,-6.38019 0,-6.20658 -0.84635,-10.26473 -2.53905,-12.17445 -1.73611,-1.90971 -6.01127,-5.09981 -12.82549,-9.57028 -6.81422,-4.51388 -11.3281,-7.79078 -13.54164,-9.83071 -2.21353,-2.03993 -4.05815,-4.8611 -5.53384,-8.46352 -1.43229,-3.60242 -2.14843,-8.2031 -2.14843,-13.80205 0,-8.07289 1.01996,-13.97565 3.05989,-17.70828 2.08333,-3.73263 5.42533,-6.64061 10.02602,-8.72394 4.60068,-2.12673 10.15622,-3.1901 16.66662,-3.1901 7.11804,0 13.17271,1.15017 18.16402,3.45052 5.03471,2.30034 8.35501,5.20832 9.96091,8.72393 1.6493,3.47221 2.47395,9.39668 2.47395,17.77339 z m 58.20298,-31.90096 15.69006,105.40338 h -28.05982 l -1.36719,-18.94527 h -9.8307 l -1.6276,18.94527 h -28.38534 l 22.87589,-105.53534 z m -14.51819,67.77326 c -1.38889,-11.93573 -2.77777,-26.67094 -4.16666,-44.20561 -2.77777,20.13883 -4.51388,34.87404 -5.20832,44.20561 z m 62.30452,-67.77326 v 84.30968 h 16.66662 v 21.0937 H 568.33882 V 233.5954 Z m 23.30723,0 h 20.50776 c 13.23781,0 22.17876,0.60764 26.82285,1.82291 4.68749,1.21527 8.24651,3.2118 10.67706,5.98957 2.43055,2.77777 3.94964,5.88106 4.55728,9.30987 0.60763,3.38541 0.91145,10.06942 0.91145,20.05203 v 36.91397 c 0,9.46178 -0.45573,15.79857 -1.36718,19.01037 -0.86805,3.16839 -2.40885,5.66405 -4.62239,7.48696 -2.21353,1.77951 -4.9479,3.03818 -8.2031,3.77603 -3.2552,0.69445 -8.1597,1.04167 -14.7135,1.04167 h -34.57023 z m 27.40879,18.03381 v 69.33576 c 3.94964,0 6.38019,-0.78125 7.29164,-2.34375 0.91146,-1.60589 1.36719,-5.92446 1.36719,-12.95569 v -40.95042 c 0,-4.77429 -0.15191,-7.83418 -0.45573,-9.17966 -0.30382,-1.34549 -0.99826,-2.32205 -2.08333,-2.92968 -1.08507,-0.65104 -3.12499,-0.97656 -6.11977,-0.97656 z m 108.919,43.68478 c 0,10.59025 -0.26042,18.09892 -0.78125,22.52599 -0.47743,4.38367 -2.03992,8.39841 -4.68749,12.04424 -2.60416,3.64582 -6.14148,6.44529 -10.61195,8.39841 -4.47047,1.95312 -9.67879,2.92968 -15.62496,2.92968 -5.64235,0 -10.72046,-0.91146 -15.23434,-2.73437 -4.47047,-1.86631 -8.07289,-4.64408 -10.80726,-8.33331 -2.73437,-3.68923 -4.36197,-7.70397 -4.8828,-12.04424 -0.52083,-4.34027 -0.78125,-11.93573 -0.78125,-22.7864 v -18.03381 c 0,-10.59025 0.23872,-18.07721 0.71615,-22.46088 0.52083,-4.42707 2.08332,-8.46351 4.68748,-12.10934 2.64757,-3.64583 6.20659,-6.4453 10.67706,-8.39842 4.47047,-1.95312 9.67879,-2.92968 15.62496,-2.92968 5.64235,0 10.69876,0.93316 15.16923,2.79948 4.51388,1.82291 8.138,4.57897 10.87237,8.2682 2.73437,3.68923 4.36197,7.70397 4.8828,12.04424 0.52083,4.34027 0.78125,11.93573 0.78125,22.7864 z m -27.40879,-34.63533 c 0,-4.9045 -0.28212,-8.02949 -0.84635,-9.37497 -0.52083,-1.38889 -1.6276,-2.08333 -3.3203,-2.08333 -1.43229,0 -2.53906,0.56423 -3.32031,1.6927 -0.73784,1.08507 -1.10676,4.34027 -1.10676,9.7656 v 49.21863 c 0,6.11977 0.23871,9.8958 0.71614,11.32809 0.52083,1.43229 1.69271,2.14844 3.51562,2.14844 1.86631,0 3.05989,-0.82465 3.58072,-2.47396 0.52083,-1.6493 0.78124,-5.57724 0.78124,-11.78382 z"
       id="text1-9"
       transform="matrix(0.93749997,0,0,0.93749997,-288.30182,3.2977286)"
       aria-label="SALDO"
       sodipodi:nodetypes="ccssscsccssccscssccscscsccscsccsccsccccccccccccccccccccccscscsscccscccccsssccsccsscssssccsscssssscscsscssss" />
  </g>
</svg>
